<?xml version="1.0" encoding="UTF-8" standalone="no"?>
<!-- Created with Inkscape (http://www.inkscape.org/) -->

<svg
   xmlns:dc="http://purl.org/dc/elements/1.1/"
   xmlns:cc="http://creativecommons.org/ns#"
   xmlns:rdf="http://www.w3.org/1999/02/22-rdf-syntax-ns#"
   xmlns:svg="http://www.w3.org/2000/svg"
   xmlns="http://www.w3.org/2000/svg"
   xmlns:sodipodi="http://sodipodi.sourceforge.net/DTD/sodipodi-0.dtd"
   xmlns:inkscape="http://www.inkscape.org/namespaces/inkscape"
   width="159.71648mm"
   height="51.284088mm"
   viewBox="0 0 565.92439 181.71526"
   id="svg2"
   version="1.1"
   inkscape:version="0.91 r13725"
   sodipodi:docname="dessin.svg">
  <title
     id="title3360">mybee-student-logo</title>
  <defs
     id="defs4" />
  <sodipodi:namedview
     id="base"
     pagecolor="#88ffff"
     bordercolor="#6666ff"
     borderopacity="1"
     inkscape:pageopacity="0"
     inkscape:pageshadow="2"
     inkscape:zoom="0.98994949"
     inkscape:cx="184.95163"
     inkscape:cy="-140.02497"
     inkscape:document-units="px"
     inkscape:current-layer="layer1"
     showgrid="false"
     fit-margin-top="1"
     fit-margin-left="1"
     fit-margin-right="1"
     fit-margin-bottom="1"
     showborder="true"
     inkscape:window-width="1920"
     inkscape:window-height="1027"
     inkscape:window-x="-8"
     inkscape:window-y="22"
     inkscape:window-maximized="1" />
  <metadata
     id="metadata7">
    <rdf:RDF>
      <cc:Work
         rdf:about="">
        <dc:format>image/svg+xml</dc:format>
        <dc:type
           rdf:resource="http://purl.org/dc/dcmitype/StillImage" />
        <dc:title>mybee-student-logo</dc:title>
      </cc:Work>
    </rdf:RDF>
  </metadata>
  <g
     inkscape:label="Calque 1"
     inkscape:groupmode="layer"
     id="layer1"
     transform="translate(1.4163159,0.63938409)">
    <flowRoot
       xml:space="preserve"
       id="flowRoot3336"
       style="font-style:normal;font-weight:normal;font-size:40px;line-height:125%;font-family:sans-serif;letter-spacing:0px;word-spacing:0px;fill:#000000;fill-opacity:1;stroke:none;stroke-width:1px;stroke-linecap:butt;stroke-linejoin:miter;stroke-opacity:1"><flowRegion
         id="flowRegion3338"><rect
           id="rect3340"
           width="334.3605"
           height="105.05586"
           x="53.538086"
           y="63.422863" /></flowRegion><flowPara
         id="flowPara3342"></flowPara></flowRoot>    <g
       id="g3362">
      <g
         style="font-style:normal;font-weight:normal;font-size:40px;line-height:125%;font-family:sans-serif;letter-spacing:0px;word-spacing:0px;fill:#ffffff;fill-opacity:1;stroke:none;stroke-width:1px;stroke-linecap:butt;stroke-linejoin:miter;stroke-opacity:1"
         id="text3344">
        <path
           d="m 72.43943,82.005486 q 0,-10.898438 -7.734375,-18.632813 -7.734375,-7.734375 -18.632812,-7.734375 -10.898438,0 -18.632813,7.734375 -7.734375,7.734375 -7.734375,18.632813 l 0,43.945314 -17.5781248,0 0,-43.945314 q 0,-18.19336 12.8320308,-31.025391 12.919922,-12.919922 31.113282,-12.919922 18.193359,0 31.113281,12.832031 2.197266,2.285157 4.042969,4.658203 1.845703,-2.373046 4.130859,-4.658203 12.832031,-12.832031 31.025388,-12.832031 18.19336,0 31.02539,12.919922 12.91993,12.832031 12.91993,31.025391 l 0,43.945314 -17.57813,0 0,-43.945314 q 0,-10.898438 -7.73437,-18.632813 -7.73438,-7.734375 -18.63282,-7.734375 -10.89843,0 -18.63281,7.734375 -7.734375,7.734375 -7.734375,18.632813 l 0,43.945314 -17.578125,0 0,-43.945314 z"
           style="font-style:normal;font-variant:normal;font-weight:normal;font-stretch:normal;font-size:180px;font-family:'Electromagnetic Lungs';-inkscape-font-specification:'Electromagnetic Lungs';fill:#ffffff"
           id="path3367"
           inkscape:connector-curvature="0" />
        <path
           d="m 257.00974,117.16174 q 0,18.19335 -12.91992,31.02539 -12.83203,12.91992 -31.02539,12.91992 l 0,-17.57813 q 10.89844,0 18.63281,-7.73437 7.73438,-7.73438 7.73438,-18.54492 -11.33789,8.70117 -26.36719,8.70117 -18.19336,0 -31.11328,-12.83203 -12.83203,-12.91993 -12.83203,-31.113284 l 0,-43.945313 17.57812,0 0,43.945313 q 0,10.898437 7.73438,18.632814 7.73437,7.73437 18.63281,7.73437 10.89844,0 18.63281,-7.73437 7.73438,-7.734377 7.73438,-18.632814 l 0,-43.945313 17.57812,0 0,79.101567 z"
           style="font-style:normal;font-variant:normal;font-weight:normal;font-stretch:normal;font-size:180px;font-family:'Electromagnetic Lungs';-inkscape-font-specification:'Electromagnetic Lungs';fill:#ffffff"
           id="path3369"
           inkscape:connector-curvature="0" />
        <path
           d="m 309.74412,55.638298 q -10.89844,0 -18.63281,7.734375 -7.73438,7.734375 -7.73438,18.632813 0,10.898437 7.73438,18.632814 7.73437,7.73437 18.63281,7.73437 10.89844,0 18.63281,-7.73437 7.73438,-7.734377 7.73438,-18.632814 0,-10.898438 -7.73438,-18.632813 -7.73437,-7.734375 -18.63281,-7.734375 z m -43.94531,-52.734375 17.57812,0 0,43.857422 q 11.33789,-8.701172 26.36719,-8.701172 18.19336,0 31.02539,12.919922 12.91992,12.832031 12.91992,31.025391 0,18.193354 -12.91992,31.113284 -12.83203,12.83203 -31.02539,12.83203 -18.19336,0 -31.11328,-12.83203 -12.83203,-12.91993 -12.83203,-31.113284 l 0,-79.101563 z"
           style="font-style:normal;font-variant:normal;font-weight:normal;font-stretch:normal;font-size:180px;font-family:'Electromagnetic Lungs';-inkscape-font-specification:'Electromagnetic Lungs';fill:#ffffff"
           id="path3371"
           inkscape:connector-curvature="0" />
        <path
           d="m 431.38474,73.216423 q -1.93359,-5.449219 -6.32812,-9.84375 -7.73438,-7.734375 -18.63281,-7.734375 -10.89844,0 -18.63282,7.734375 -4.39453,4.394531 -6.32812,9.84375 l 49.92187,0 z m -5.36133,26.367188 20.83008,0 q -3.25195,7.382809 -9.3164,13.447269 -12.91993,12.91992 -31.11328,12.91992 -18.19336,0 -31.11329,-12.83203 -12.83203,-12.91993 -12.83203,-31.113284 0,-18.19336 12.83203,-31.025391 12.91993,-12.919922 31.11329,-12.919922 18.19335,0 31.02539,12.919922 12.91992,12.832031 12.91992,31.025391 0,4.570312 -0.79102,8.789062 l -68.11523,0 q 1.93359,5.449219 6.32812,9.843752 7.73438,7.73437 18.63282,7.73437 10.89843,0 18.63281,-7.73437 0.52734,-0.52735 0.96679,-1.054689 z"
           style="font-style:normal;font-variant:normal;font-weight:normal;font-stretch:normal;font-size:180px;font-family:'Electromagnetic Lungs';-inkscape-font-specification:'Electromagnetic Lungs';fill:#ffffff"
           id="path3373"
           inkscape:connector-curvature="0" />
        <path
           d="m 528.06443,73.216423 q -1.93359,-5.449219 -6.32812,-9.84375 -7.73438,-7.734375 -18.63282,-7.734375 -10.89843,0 -18.63281,7.734375 -4.39453,4.394531 -6.32812,9.84375 l 49.92187,0 z m -5.36133,26.367188 20.83008,0 q -3.25195,7.382809 -9.31641,13.447269 -12.91992,12.91992 -31.11328,12.91992 -18.19336,0 -31.11328,-12.83203 -12.83203,-12.91993 -12.83203,-31.113284 0,-18.19336 12.83203,-31.025391 12.91992,-12.919922 31.11328,-12.919922 18.19336,0 31.02539,12.919922 12.91993,12.832031 12.91993,31.025391 0,4.570312 -0.79102,8.789062 l -68.11523,0 q 1.93359,5.449219 6.32812,9.843752 7.73438,7.73437 18.63281,7.73437 10.89844,0 18.63282,-7.73437 0.52734,-0.52735 0.96679,-1.054689 z"
           style="font-style:normal;font-variant:normal;font-weight:normal;font-stretch:normal;font-size:180px;font-family:'Electromagnetic Lungs';-inkscape-font-specification:'Electromagnetic Lungs';fill:#ffffff"
           id="path3375"
           inkscape:connector-curvature="0" />
      </g>
    </g>
    <g
       transform="translate(-110,14)"
       style="font-style:normal;font-weight:normal;font-size:40px;line-height:125%;font-family:sans-serif;letter-spacing:0px;word-spacing:0px;fill:#ffffff;fill-opacity:1;stroke:none;stroke-width:1px;stroke-linecap:butt;stroke-linejoin:miter;stroke-opacity:1"
       id="flowRoot3348">
      <path
         d="m 424.87109,124.47008 27.34375,0 0,7.8125 -27.34375,0 q -1.60156,0 -2.77343,1.17187 -1.13282,1.13282 -1.13282,2.73438 0,1.60156 1.13282,2.77344 1.17187,1.13281 2.77343,1.13281 l 15.625,0 q 4.84375,0 8.28125,3.4375 3.4375,3.4375 3.4375,8.28125 0,4.84375 -3.4375,8.28125 -3.4375,3.4375 -8.28125,3.4375 l -27.34375,0 0,-7.8125 27.34375,0 q 1.60157,0 2.73438,-1.13281 1.17187,-1.17188 1.17187,-2.77344 0,-1.60156 -1.17187,-2.73438 -1.13281,-1.17187 -2.73438,-1.17187 l -15.625,0 q -4.84375,0 -8.28125,-3.4375 -3.4375,-3.4375 -3.4375,-8.28125 0,-4.84375 3.4375,-8.28125 3.4375,-3.4375 8.28125,-3.4375 z"
         style="font-style:normal;font-variant:normal;font-weight:normal;font-stretch:normal;font-size:80px;font-family:'Electromagnetic Lungs';-inkscape-font-specification:'Electromagnetic Lungs';fill:#ffffff"
         id="path3378"
         inkscape:connector-curvature="0" />
      <path
         d="m 456.12109,108.84508 7.8125,0 0,15.625 11.71875,0 0,7.8125 -11.71875,0 0,11.71875 q 0,4.84375 3.4375,8.28125 3.4375,3.4375 8.28125,3.4375 l 0,7.8125 q -8.08593,0 -13.82812,-5.70313 -5.70313,-5.74218 -5.70313,-13.82812 l 0,-35.15625 z"
         style="font-style:normal;font-variant:normal;font-weight:normal;font-stretch:normal;font-size:80px;font-family:'Electromagnetic Lungs';-inkscape-font-specification:'Electromagnetic Lungs';fill:#ffffff"
         id="path3380"
         inkscape:connector-curvature="0" />
      <path
         d="m 487.37109,144.00133 q 0,4.84375 3.4375,8.28125 3.4375,3.4375 8.28125,3.4375 4.84375,0 8.28125,-3.4375 3.4375,-3.4375 3.4375,-8.28125 l 0,-19.53125 7.8125,0 0,19.53125 q 0,8.08594 -5.74218,13.82812 -5.70313,5.70313 -13.78907,5.70313 -8.08593,0 -13.82812,-5.70313 -5.70313,-5.74218 -5.70313,-13.82812 l 0,-19.53125 7.8125,0 0,19.53125 z"
         style="font-style:normal;font-variant:normal;font-weight:normal;font-stretch:normal;font-size:80px;font-family:'Electromagnetic Lungs';-inkscape-font-specification:'Electromagnetic Lungs';fill:#ffffff"
         id="path3382"
         inkscape:connector-curvature="0" />
      <path
         d="m 542.05859,132.28258 q -4.84375,0 -8.28125,3.4375 -3.4375,3.4375 -3.4375,8.28125 0,4.84375 3.4375,8.28125 3.4375,3.4375 8.28125,3.4375 4.84375,0 8.28125,-3.4375 3.4375,-3.4375 3.4375,-8.28125 0,-4.84375 -3.4375,-8.28125 -3.4375,-3.4375 -8.28125,-3.4375 z m 19.53125,11.71875 q 0,8.08594 -5.74218,13.82812 -5.70313,5.70313 -13.78907,5.70313 -8.08593,0 -13.82812,-5.70313 -5.70313,-5.74218 -5.70313,-13.82812 0,-8.08594 5.70313,-13.78906 5.74219,-5.74219 13.82812,-5.74219 6.67969,0 11.71875,3.86719 l 0,-19.49219 7.8125,0 0,35.15625 z"
         style="font-style:normal;font-variant:normal;font-weight:normal;font-stretch:normal;font-size:80px;font-family:'Electromagnetic Lungs';-inkscape-font-specification:'Electromagnetic Lungs';fill:#ffffff"
         id="path3384"
         inkscape:connector-curvature="0" />
      <path
         d="m 596.12109,140.09508 q -0.85937,-2.42188 -2.8125,-4.375 -3.4375,-3.4375 -8.28125,-3.4375 -4.84375,0 -8.28125,3.4375 -1.95312,1.95312 -2.8125,4.375 l 22.1875,0 z m -2.38281,11.71875 9.25781,0 q -1.44531,3.28125 -4.14062,5.97656 -5.74219,5.74219 -13.82813,5.74219 -8.08593,0 -13.82812,-5.70313 -5.70313,-5.74218 -5.70313,-13.82812 0,-8.08594 5.70313,-13.78906 5.74219,-5.74219 13.82812,-5.74219 8.08594,0 13.78907,5.74219 5.74218,5.70312 5.74218,13.78906 0,2.03125 -0.35156,3.90625 l -30.27344,0 q 0.85938,2.42187 2.8125,4.375 3.4375,3.4375 8.28125,3.4375 4.84375,0 8.28125,-3.4375 0.23438,-0.23438 0.42969,-0.46875 z"
         style="font-style:normal;font-variant:normal;font-weight:normal;font-stretch:normal;font-size:80px;font-family:'Electromagnetic Lungs';-inkscape-font-specification:'Electromagnetic Lungs';fill:#ffffff"
         id="path3386"
         inkscape:connector-curvature="0" />
      <path
         d="m 616.27734,144.00133 0,19.53125 -7.8125,0 0,-19.53125 q 0,-8.08594 5.70313,-13.78906 5.74219,-5.74219 13.82812,-5.74219 8.08594,0 13.78907,5.74219 5.74218,5.70312 5.74218,13.78906 l 0,19.53125 -7.8125,0 0,-19.53125 q 0,-4.84375 -3.4375,-8.28125 -3.4375,-3.4375 -8.28125,-3.4375 -4.84375,0 -8.28125,3.4375 -3.4375,3.4375 -3.4375,8.28125 z"
         style="font-style:normal;font-variant:normal;font-weight:normal;font-stretch:normal;font-size:80px;font-family:'Electromagnetic Lungs';-inkscape-font-specification:'Electromagnetic Lungs';fill:#ffffff"
         id="path3388"
         inkscape:connector-curvature="0" />
      <path
         d="m 651.43359,108.84508 7.8125,0 0,15.625 11.71875,0 0,7.8125 -11.71875,0 0,11.71875 q 0,4.84375 3.4375,8.28125 3.4375,3.4375 8.28125,3.4375 l 0,7.8125 q -8.08593,0 -13.82812,-5.70313 -5.70313,-5.74218 -5.70313,-13.82812 l 0,-35.15625 z"
         style="font-style:normal;font-variant:normal;font-weight:normal;font-stretch:normal;font-size:80px;font-family:'Electromagnetic Lungs';-inkscape-font-specification:'Electromagnetic Lungs';fill:#ffffff"
         id="path3390"
         inkscape:connector-curvature="0" />
    </g>
  </g>
</svg>
